{
  "entrypoint": "index.html",
  "shell": "src/main-app.html",
  "fragments": [
    "src/form-elements.html",
    "src/gird-data.html",
    "src/my-view404.html"
  ],
  "sources": [
    "src/**/*",
    "images/**/*"
  ],
  "extraDependencies": [
    "manifest.json",
    "bower_components/webcomponentsjs/*.js"
  ],
  "lint": {
    "rules": ["polymer-2"]
  },
  "builds": [
    
    {
      "preset": "es6-bundled"
    }
  ]
}
